<?xml version="1.0" encoding="UTF-8"?>
<svg width="14px" height="24px" viewBox="0 0 14 24" version="1.1" xmlns="http://www.w3.org/2000/svg" xmlns:xlink="http://www.w3.org/1999/xlink">
    <!-- Generator: Sketch 51 (57462) - http://www.bohemiancoding.com/sketch -->
    <title>prev</title>
    <desc>Created with Sketch.</desc>
    <defs></defs>
    <g id="Page-1" stroke="none" stroke-width="1" fill="none" fill-rule="evenodd" opacity="0.3" stroke-linecap="round" stroke-linejoin="round">
        <g id="320-Our-Footprints/Handprints-S2" transform="translate(-12.000000, -261.000000)" stroke="#1E8675">
            <g id="section-1" transform="translate(13.000000, 86.000000)">
                <g id="SLIDE-nav" transform="translate(0.000000, 175.000000)">
                    <polyline id="prev" transform="translate(6.000000, 12.000000) scale(-1, -1) rotate(90.000000) translate(-6.000000, -12.000000) " points="18 17.9389013 6.03062731 6 -6 18"></polyline>
                </g>
            </g>
        </g>
    </g>
</svg>